{
  "annotations": {
    "list": [
      {
        "builtIn": 1,
        "datasource": "-- Grafana --",
        "enable": true,
        "hide": true,
        "iconColor": "rgba(0, 211, 255, 1)",
        "name": "Annotations & Alerts",
        "type": "dashboard"
      }
    ]
  },
  "editable": true,
  "gnetId": null,
  "graphTooltip": 0,
  "id": 2,
  "iteration": 1568993806817,
  "links": [
    {
      "icon": "external link",
      "tags": [
        "Open AI Gym Top"
      ],
      "type": "dashboards"
    },
    {
      "icon": "external link",
      "tags": [],
      "title": "Back to Carpole",
      "tooltip": "Back to Carpose",
      "type": "link",
      "url": "http://google.com"
    }
  ],
  "panels": [
    {
      "content": "# AI Gym Trial Stats\n# Trial Name: $trial_name\n## Trial Id: $trial_id\n\n\n\n",
      "gridPos": {
        "h": 4,
        "w": 11,
        "x": 0,
        "y": 0
      },
      "id": 14,
      "links": [],
      "mode": "markdown",
      "options": {},
      "targets": [
        {
          "format": "time_series",
          "group": [],
          "metricColumn": "none",
          "rawQuery": false,
          "refId": "A",
          "select": [
            [
              {
                "params": [
                  "value"
                ],
                "type": "column"
              }
            ]
          ],
          "timeColumn": "time",
          "where": [
            {
              "name": "$__timeFilter",
              "params": [],
              "type": "macro"
            }
          ]
        }
      ],
      "timeFrom": null,
      "timeShift": null,
      "title": "",
      "type": "text"
    },
    {
      "aliasColors": {},
      "bars": false,
      "dashLength": 10,
      "dashes": false,
      "datasource": "SimpleJson",
      "fill": 1,
      "gridPos": {
        "h": 11,
        "w": 13,
        "x": 11,
        "y": 0
      },
      "id": 16,
      "legend": {
        "alignAsTable": false,
        "avg": false,
        "current": false,
        "max": false,
        "min": false,
        "show": true,
        "total": false,
        "values": false
      },
      "lines": false,
      "linewidth": 1,
      "links": [],
      "nullPointMode": "null",
      "options": {},
      "percentage": false,
      "pointradius": 2,
      "points": false,
      "renderer": "flot",
      "seriesOverrides": [
        {
          "alias": "Agent Score",
          "lines": true,
          "points": true
        },
        {
          "alias": "Score Improvement",
          "color": "#C0D8FF",
          "lines": true,
          "linewidth": 3
        },
        {
          "alias": "Trial Start",
          "color": "#FFB357",
          "points": true
        }
      ],
      "spaceLength": 10,
      "stack": false,
      "steppedLine": false,
      "targets": [
        {
          "rawQuery": true,
          "refId": "A",
          "target": "GYM_top_wld:$trial_id",
          "type": "timeserie"
        }
      ],
      "thresholds": [],
      "timeFrom": null,
      "timeRegions": [],
      "timeShift": null,
      "title": "Rewards/Score",
      "tooltip": {
        "shared": true,
        "sort": 0,
        "value_type": "individual"
      },
      "type": "graph",
      "xaxis": {
        "buckets": null,
        "mode": "time",
        "name": null,
        "show": true,
        "values": []
      },
      "yaxes": [
        {
          "format": "short",
          "label": null,
          "logBase": 1,
          "max": null,
          "min": "0",
          "show": true
        },
        {
          "format": "short",
          "label": null,
          "logBase": 1,
          "max": null,
          "min": null,
          "show": false
        }
      ],
      "yaxis": {
        "align": false,
        "alignLevel": null
      }
    },
    {
      "datasource": "SimpleJson",
      "gridPos": {
        "h": 7,
        "w": 11,
        "x": 0,
        "y": 4
      },
      "id": 15,
      "links": [],
      "options": {
        "displayMode": "gradient",
        "fieldOptions": {
          "calcs": [
            "sum"
          ],
          "defaults": {
            "max": 100,
            "min": 0,
            "unit": "short"
          },
          "mappings": [],
          "override": {},
          "thresholds": [
            {
              "color": "green",
              "index": 0,
              "value": null
            },
            {
              "color": "#EF843C",
              "index": 1,
              "value": 2
            },
            {
              "color": "#6ED0E0",
              "index": 2,
              "value": 4
            },
            {
              "color": "#EAB839",
              "index": 3,
              "value": 8
            },
            {
              "color": "red",
              "index": 4,
              "value": 16
            },
            {
              "color": "#E24D42",
              "index": 5,
              "value": 32
            },
            {
              "color": "#1F78C1",
              "index": 6,
              "value": 64
            },
            {
              "color": "#BA43A9",
              "index": 7,
              "value": 100
            }
          ],
          "values": false
        },
        "orientation": "horizontal"
      },
      "targets": [
        {
          "rawQuery": true,
          "refId": "A",
          "target": "GYM_trial_stats_combined_bars:$trial_id",
          "type": "table"
        }
      ],
      "timeFrom": null,
      "timeShift": null,
      "title": "Stats",
      "type": "bargauge"
    },
    {
      "aliasColors": {},
      "bars": false,
      "dashLength": 10,
      "dashes": false,
      "datasource": "SimpleJson",
      "fill": 1,
      "gridPos": {
        "h": 10,
        "w": 24,
        "x": 0,
        "y": 11
      },
      "id": 13,
      "legend": {
        "avg": false,
        "current": false,
        "hideEmpty": false,
        "max": false,
        "min": false,
        "show": true,
        "total": false,
        "values": false
      },
      "lines": false,
      "linewidth": 1,
      "links": [],
      "nullPointMode": "null",
      "options": {},
      "percentage": false,
      "pointradius": 2,
      "points": false,
      "renderer": "flot",
      "seriesOverrides": [
        {
          "alias": "Agent Reward",
          "lines": true
        },
        {
          "alias": "Trial Start",
          "lines": false,
          "points": true
        },
        {
          "alias": "Agent Action",
          "lines": true
        },
        {
          "alias": "Game Start",
          "lines": false,
          "points": true
        }
      ],
      "spaceLength": 10,
      "stack": false,
      "steppedLine": true,
      "targets": [
        {
          "rawQuery": true,
          "refId": "C",
          "target": "GYM_top_trial_stats_rps_graph:$trial_id",
          "type": "timeserie"
        }
      ],
      "thresholds": [],
      "timeFrom": null,
      "timeRegions": [],
      "timeShift": null,
      "title": "Session Action/Reward",
      "tooltip": {
        "shared": true,
        "sort": 0,
        "value_type": "individual"
      },
      "type": "graph",
      "xaxis": {
        "buckets": null,
        "mode": "time",
        "name": null,
        "show": true,
        "values": []
      },
      "yaxes": [
        {
          "format": "short",
          "label": null,
          "logBase": 1,
          "max": null,
          "min": "-1",
          "show": true
        },
        {
          "format": "short",
          "label": null,
          "logBase": 1,
          "max": null,
          "min": null,
          "show": false
        }
      ],
      "yaxis": {
        "align": false,
        "alignLevel": null
      }
    }
  ],
  "refresh": false,
  "schemaVersion": 18,
  "style": "dark",
  "tags": [],
  "templating": {
    "list": [
      {
        "allValue": null,
        "current": {
          "text": "cdcb684a-a7e7-4f0c-b529-b29f43b69f82",
          "value": "cdcb684a-a7e7-4f0c-b529-b29f43b69f82"
        },
        "hide": 2,
        "includeAll": false,
        "label": null,
        "multi": false,
        "name": "trial_id",
        "options": [
          {
            "selected": false,
            "text": "value",
            "value": "value"
          }
        ],
        "query": "value",
        "skipUrlSync": false,
        "type": "custom"
      },
      {
        "allValue": null,
        "current": {
          "text": "no-feedback1",
          "value": "no-feedback1"
        },
        "hide": 2,
        "includeAll": false,
        "label": null,
        "multi": false,
        "name": "trial_name",
        "options": [
          {
            "selected": false,
            "text": "value",
            "value": "value"
          }
        ],
        "query": "value",
        "skipUrlSync": false,
        "type": "custom"
      }
    ]
  },
  "time": {
    "from": "2019-09-04T02:27:26.992Z",
    "to": "2019-09-04T02:27:50.190Z"
  },
  "timepicker": {
    "hidden": false,
    "refresh_intervals": [
      "5s"
    ],
    "time_options": [
      "5m",
      "15m",
      "1h",
      "6h",
      "12h",
      "24h",
      "2d",
      "7d",
      "30d"
    ]
  },
  "timezone": "",
  "title": "Open AI Gym Trial Stats",
  "uid": "wVcCSgFZz",
  "version": 2
}