{
  "annotations": {
    "list": [
      {
        "builtIn": 1,
        "datasource": "-- Grafana --",
        "enable": true,
        "hide": true,
        "iconColor": "rgba(0, 211, 255, 1)",
        "name": "Annotations & Alerts",
        "type": "dashboard"
      }
    ]
  },
  "editable": true,
  "gnetId": null,
  "graphTooltip": 0,
  "id": 13,
  "links": [],
  "panels": [
    {
      "content": "# Rock-Paper_Scissors\n# Top Level Trials\n\n\n",
      "gridPos": {
        "h": 4,
        "w": 7,
        "x": 0,
        "y": 0
      },
      "id": 6,
      "links": [],
      "mode": "markdown",
      "options": {},
      "targets": [
        {
          "format": "time_series",
          "group": [],
          "metricColumn": "none",
          "rawQuery": false,
          "refId": "A",
          "select": [
            [
              {
                "params": [
                  "value"
                ],
                "type": "column"
              }
            ]
          ],
          "timeColumn": "time",
          "where": [
            {
              "name": "$__timeFilter",
              "params": [],
              "type": "macro"
            }
          ]
        }
      ],
      "timeFrom": null,
      "timeShift": null,
      "title": " ",
      "type": "text"
    },
    {
      "columns": [],
      "datasource": "RPS",
      "fontSize": "100%",
      "gridPos": {
        "h": 4,
        "w": 5,
        "x": 7,
        "y": 0
      },
      "id": 8,
      "links": [],
      "options": {},
      "pageSize": null,
      "scroll": false,
      "showHeader": true,
      "sort": {
        "col": 0,
        "desc": false
      },
      "styles": [
        {
          "alias": "",
          "colorMode": null,
          "dateFormat": "YYYY-MM-DD HH:mm:ss",
          "link": false,
          "linkUrl": "dashboard/db/rps-top?&from=${__cell_0}&to=${__cell_1}",
          "pattern": "from",
          "thresholds": [
            ""
          ],
          "type": "hidden",
          "unit": "short"
        },
        {
          "alias": "",
          "colorMode": null,
          "colors": [
            "rgba(245, 54, 54, 0.9)",
            "rgba(237, 129, 40, 0.89)",
            "rgba(50, 172, 45, 0.97)"
          ],
          "decimals": 2,
          "pattern": "to",
          "thresholds": [],
          "type": "hidden",
          "unit": "short"
        },
        {
          "alias": "",
          "colorMode": null,
          "colors": [
            "rgba(245, 54, 54, 0.9)",
            "rgba(237, 129, 40, 0.89)",
            "rgba(50, 172, 45, 0.97)"
          ],
          "dateFormat": "YYYY-MM-DD HH:mm:ss",
          "decimals": 2,
          "link": true,
          "linkTooltip": "Refresh Timeline",
          "linkUrl": "dashboard/db/rps-top?&from=${__cell_1}&to=${__cell_2}",
          "mappingType": 1,
          "pattern": "Hit Refresh Timelines",
          "thresholds": [],
          "type": "string",
          "unit": "short"
        }
      ],
      "targets": [
        {
          "rawQuery": true,
          "refId": "A",
          "target": "RPS_top_refresh:24",
          "type": "table"
        }
      ],
      "timeFrom": null,
      "timeShift": null,
      "title": " ",
      "transform": "table",
      "type": "table"
    },
    {
      "columns": [],
      "datasource": "RPS",
      "fontSize": "100%",
      "gridPos": {
        "h": 13,
        "w": 12,
        "x": 12,
        "y": 0
      },
      "id": 4,
      "links": [],
      "options": {},
      "pageSize": null,
      "scroll": true,
      "showHeader": true,
      "sort": {
        "col": 0,
        "desc": true
      },
      "styles": [
        {
          "alias": "Trial Id",
          "dateFormat": "YYYY-MM-DD HH:mm:ss",
          "link": true,
          "linkTooltip": "Get Trial Stats",
          "linkUrl": "dashboard/db/rps-trial-stats?var-trial_id=${__cell}&from=${__cell_3}&to=${__cell_4}",
          "pattern": "orig_session_id",
          "type": "string"
        },
        {
          "alias": "Time Contributed",
          "colorMode": null,
          "colors": [
            "rgba(245, 54, 54, 0.9)",
            "rgba(237, 129, 40, 0.89)",
            "rgba(50, 172, 45, 0.97)"
          ],
          "dateFormat": "MM/DD/YY h:mm:ss a",
          "decimals": 2,
          "mappingType": 1,
          "pattern": "datetime",
          "thresholds": [],
          "type": "date",
          "unit": "short"
        },
        {
          "alias": "Trial Duration",
          "colorMode": null,
          "colors": [
            "rgba(245, 54, 54, 0.9)",
            "rgba(237, 129, 40, 0.89)",
            "rgba(50, 172, 45, 0.97)"
          ],
          "dateFormat": "YYYY-MM-DD HH:mm:ss",
          "decimals": 2,
          "mappingType": 1,
          "pattern": "trial_duration",
          "thresholds": [],
          "type": "number",
          "unit": "s"
        },
        {
          "alias": "",
          "colorMode": null,
          "colors": [
            "rgba(245, 54, 54, 0.9)",
            "rgba(237, 129, 40, 0.89)",
            "rgba(50, 172, 45, 0.97)"
          ],
          "dateFormat": "YYYY-MM-DD HH:mm:ss",
          "decimals": 2,
          "mappingType": 1,
          "pattern": "from_time",
          "thresholds": [],
          "type": "hidden",
          "unit": "short"
        },
        {
          "alias": "",
          "colorMode": null,
          "colors": [
            "rgba(245, 54, 54, 0.9)",
            "rgba(237, 129, 40, 0.89)",
            "rgba(50, 172, 45, 0.97)"
          ],
          "dateFormat": "YYYY-MM-DD HH:mm:ss",
          "decimals": 2,
          "mappingType": 1,
          "pattern": "to_time",
          "thresholds": [],
          "type": "hidden",
          "unit": "short"
        }
      ],
      "targets": [
        {
          "rawQuery": true,
          "refId": "A",
          "target": "RPS_high_level_info:24",
          "type": "table"
        }
      ],
      "timeFrom": null,
      "timeShift": null,
      "title": "Trial Stats",
      "transform": "table",
      "type": "table"
    },
    {
      "aliasColors": {},
      "bars": false,
      "dashLength": 10,
      "dashes": false,
      "datasource": "RPS",
      "fill": 1,
      "gridPos": {
        "h": 9,
        "w": 12,
        "x": 0,
        "y": 4
      },
      "id": 2,
      "legend": {
        "avg": false,
        "current": false,
        "max": false,
        "min": false,
        "show": true,
        "total": false,
        "values": false
      },
      "lines": true,
      "linewidth": 1,
      "links": [],
      "nullPointMode": "null",
      "options": {},
      "percentage": false,
      "pointradius": 2,
      "points": true,
      "renderer": "flot",
      "seriesOverrides": [
        {
          "alias": "NULL",
          "legend": false,
          "lines": false,
          "points": false
        },
        {
          "alias": "DRAW"
        },
        {
          "alias": "AGENT_WON",
          "color": "#E02F44"
        },
        {
          "alias": "USER_WON",
          "color": "#56A64B"
        },
        {
          "alias": "User Improvement",
          "color": "#C0D8FF",
          "fill": 0,
          "lines": true,
          "linewidth": 3,
          "points": false
        },
        {
          "alias": "Agent Improvement",
          "color": "#CA95E5",
          "fill": 0,
          "lines": true,
          "linewidth": 3,
          "points": false
        }
      ],
      "spaceLength": 10,
      "stack": false,
      "steppedLine": false,
      "targets": [
        {
          "rawQuery": true,
          "refId": "A",
          "target": "RPS_top_wld:24",
          "type": "timeserie"
        }
      ],
      "thresholds": [],
      "timeFrom": null,
      "timeRegions": [],
      "timeShift": null,
      "title": "Percentage Wins/Losses/Draws per Trial",
      "tooltip": {
        "shared": true,
        "sort": 0,
        "value_type": "individual"
      },
      "type": "graph",
      "xaxis": {
        "buckets": null,
        "mode": "time",
        "name": null,
        "show": true,
        "values": []
      },
      "yaxes": [
        {
          "format": "percent",
          "label": null,
          "logBase": 1,
          "max": null,
          "min": null,
          "show": true
        },
        {
          "format": "short",
          "label": null,
          "logBase": 1,
          "max": null,
          "min": null,
          "show": false
        }
      ],
      "yaxis": {
        "align": false,
        "alignLevel": null
      }
    },
    {
      "aliasColors": {},
      "bars": false,
      "dashLength": 10,
      "dashes": false,
      "datasource": "RPS",
      "fill": 1,
      "gridPos": {
        "h": 7,
        "w": 24,
        "x": 0,
        "y": 13
      },
      "id": 9,
      "legend": {
        "avg": false,
        "current": false,
        "max": false,
        "min": false,
        "show": true,
        "total": false,
        "values": false
      },
      "lines": true,
      "linewidth": 1,
      "links": [],
      "nullPointMode": "null",
      "options": {},
      "percentage": false,
      "pointradius": 2,
      "points": false,
      "renderer": "flot",
      "seriesOverrides": [],
      "spaceLength": 10,
      "stack": false,
      "steppedLine": true,
      "targets": [
        {
          "rawQuery": true,
          "refId": "A",
          "target": "RPS_top_trial_stats_rps_graph:top",
          "type": "timeserie"
        }
      ],
      "thresholds": [],
      "timeFrom": null,
      "timeRegions": [],
      "timeShift": null,
      "title": "Rock/Paper/Scissors",
      "tooltip": {
        "shared": true,
        "sort": 0,
        "value_type": "individual"
      },
      "type": "graph",
      "xaxis": {
        "buckets": null,
        "mode": "time",
        "name": null,
        "show": true,
        "values": []
      },
      "yaxes": [
        {
          "format": "none",
          "label": null,
          "logBase": 1,
          "max": null,
          "min": null,
          "show": true
        },
        {
          "format": "short",
          "label": null,
          "logBase": 1,
          "max": null,
          "min": null,
          "show": false
        }
      ],
      "yaxis": {
        "align": false,
        "alignLevel": null
      }
    }
  ],
  "refresh": false,
  "schemaVersion": 18,
  "style": "dark",
  "tags": [
    "RPS Top"
  ],
  "templating": {
    "list": []
  },
  "time": {
    "from": "2019-07-08T15:59:47.133Z",
    "to": "2019-07-11T13:16:52.409Z"
  },
  "timepicker": {
    "refresh_intervals": [
      "5s",
      "10s",
      "30s",
      "1m",
      "5m",
      "15m",
      "30m",
      "1h",
      "2h",
      "1d"
    ],
    "time_options": [
      "5m",
      "15m",
      "1h",
      "6h",
      "12h",
      "24h",
      "2d",
      "7d",
      "30d"
    ]
  },
  "timezone": "",
  "title": "RPS Top",
  "uid": "wbCffGSWz",
  "version": 82
}