{
  "annotations": {
    "list": [
      {
        "builtIn": 1,
        "datasource": "-- Grafana --",
        "enable": true,
        "hide": true,
        "iconColor": "rgba(0, 211, 255, 1)",
        "name": "Annotations & Alerts",
        "type": "dashboard"
      }
    ]
  },
  "editable": true,
  "gnetId": null,
  "graphTooltip": 0,
  "id": 14,
  "iteration": 1562941011248,
  "links": [
    {
      "icon": "external link",
      "tags": [
        "RPS Top"
      ],
      "type": "dashboards"
    }
  ],
  "panels": [
    {
      "content": "# RPS Trial Stats\n# Trial Session: $trial_id\n\n\n\n",
      "gridPos": {
        "h": 4,
        "w": 11,
        "x": 0,
        "y": 0
      },
      "id": 4,
      "links": [],
      "mode": "markdown",
      "options": {},
      "targets": [
        {
          "format": "time_series",
          "group": [],
          "metricColumn": "none",
          "rawQuery": false,
          "refId": "A",
          "select": [
            [
              {
                "params": [
                  "value"
                ],
                "type": "column"
              }
            ]
          ],
          "timeColumn": "time",
          "where": [
            {
              "name": "$__timeFilter",
              "params": [],
              "type": "macro"
            }
          ]
        }
      ],
      "timeFrom": null,
      "timeShift": null,
      "title": "",
      "type": "text"
    },
    {
      "aliasColors": {},
      "bars": false,
      "dashLength": 10,
      "dashes": false,
      "datasource": "SimpleJson",
      "fill": 1,
      "gridPos": {
        "h": 9,
        "w": 13,
        "x": 11,
        "y": 0
      },
      "id": 2,
      "legend": {
        "alignAsTable": false,
        "avg": false,
        "current": false,
        "max": false,
        "min": false,
        "show": true,
        "total": false,
        "values": false
      },
      "lines": true,
      "linewidth": 1,
      "links": [],
      "nullPointMode": "null",
      "options": {},
      "percentage": false,
      "pointradius": 2,
      "points": false,
      "renderer": "flot",
      "seriesOverrides": [
        {
          "alias": "result",
          "color": "#C0D8FF",
          "fill": 1,
          "legend": false
        },
        {
          "alias": "USER_WON",
          "color": "#56A64B",
          "lines": false,
          "points": true
        },
        {
          "alias": "AGENT_WON",
          "color": "#C4162A",
          "lines": false,
          "points": true
        },
        {
          "alias": "DRAW",
          "color": "#FF780A",
          "lines": false,
          "points": true
        },
        {
          "alias": "LEARN",
          "linewidth": 3,
          "zindex": 3
        }
      ],
      "spaceLength": 10,
      "stack": false,
      "steppedLine": false,
      "targets": [
        {
          "rawQuery": true,
          "refId": "A",
          "target": "RPS_trial_stats_wld:$trial_id,result",
          "type": "timeserie"
        },
        {
          "rawQuery": true,
          "refId": "B",
          "target": "RPS_trial_stats_wld:$trial_id,USER_WON",
          "type": "timeserie"
        },
        {
          "rawQuery": true,
          "refId": "C",
          "target": "RPS_trial_stats_wld:$trial_id,AGENT_WON",
          "type": "timeserie"
        },
        {
          "rawQuery": true,
          "refId": "D",
          "target": "RPS_trial_stats_wld:$trial_id,DRAW",
          "type": "timeserie"
        }
      ],
      "thresholds": [],
      "timeFrom": null,
      "timeRegions": [],
      "timeShift": null,
      "title": "Wins/Losses/Draws",
      "tooltip": {
        "shared": true,
        "sort": 0,
        "value_type": "individual"
      },
      "type": "graph",
      "xaxis": {
        "buckets": null,
        "mode": "time",
        "name": null,
        "show": true,
        "values": []
      },
      "yaxes": [
        {
          "format": "short",
          "label": null,
          "logBase": 1,
          "max": null,
          "min": null,
          "show": false
        },
        {
          "format": "short",
          "label": null,
          "logBase": 1,
          "max": null,
          "min": null,
          "show": false
        }
      ],
      "yaxis": {
        "align": false,
        "alignLevel": null
      }
    },
    {
      "datasource": "SimpleJson",
      "gridPos": {
        "h": 6,
        "w": 11,
        "x": 0,
        "y": 4
      },
      "id": 6,
      "links": [],
      "options": {
        "displayMode": "gradient",
        "fieldOptions": {
          "calcs": [
            "sum"
          ],
          "defaults": {
            "max": 100,
            "min": 0,
            "unit": "short"
          },
          "mappings": [],
          "override": {},
          "thresholds": [
            {
              "color": "green",
              "index": 0,
              "value": null
            },
            {
              "color": "#EF843C",
              "index": 1,
              "value": 2
            },
            {
              "color": "#6ED0E0",
              "index": 2,
              "value": 4
            },
            {
              "color": "#EAB839",
              "index": 3,
              "value": 8
            },
            {
              "color": "red",
              "index": 4,
              "value": 16
            },
            {
              "color": "#E24D42",
              "index": 5,
              "value": 32
            },
            {
              "color": "#1F78C1",
              "index": 6,
              "value": 64
            },
            {
              "color": "#BA43A9",
              "index": 7,
              "value": 100
            }
          ],
          "values": false
        },
        "orientation": "horizontal"
      },
      "targets": [
        {
          "rawQuery": true,
          "refId": "A",
          "target": "RPS_trial_stats_combined_bars:$trial_id,Games",
          "type": "table"
        }
      ],
      "timeFrom": null,
      "timeShift": null,
      "title": "Stats",
      "type": "bargauge"
    },
    {
      "aliasColors": {},
      "bars": false,
      "dashLength": 10,
      "dashes": false,
      "datasource": "SimpleJson",
      "fill": 1,
      "gridPos": {
        "h": 10,
        "w": 13,
        "x": 11,
        "y": 9
      },
      "id": 7,
      "legend": {
        "alignAsTable": false,
        "avg": false,
        "current": false,
        "max": false,
        "min": false,
        "show": true,
        "total": false,
        "values": false
      },
      "lines": false,
      "linewidth": 1,
      "links": [],
      "nullPointMode": "null",
      "options": {},
      "percentage": false,
      "pointradius": 2,
      "points": false,
      "renderer": "flot",
      "seriesOverrides": [
        {
          "alias": "prev_user_reward",
          "color": "#C0D8FF",
          "points": true
        },
        {
          "alias": "user_score",
          "color": "#56A64B",
          "fill": 2,
          "lines": true,
          "linewidth": 2,
          "steppedLine": true
        },
        {
          "alias": "prev_agent_reward",
          "color": "#FFB357",
          "points": true
        },
        {
          "alias": "agent_score",
          "color": "#C4162A",
          "fill": 2,
          "lines": true,
          "linewidth": 2,
          "steppedLine": true
        }
      ],
      "spaceLength": 10,
      "stack": false,
      "steppedLine": false,
      "targets": [
        {
          "rawQuery": true,
          "refId": "A",
          "target": "RPS_trial_stats_scores:$trial_id",
          "type": "timeserie"
        }
      ],
      "thresholds": [],
      "timeFrom": null,
      "timeRegions": [],
      "timeShift": null,
      "title": "Rewards/Score",
      "tooltip": {
        "shared": true,
        "sort": 0,
        "value_type": "individual"
      },
      "type": "graph",
      "xaxis": {
        "buckets": null,
        "mode": "time",
        "name": null,
        "show": true,
        "values": []
      },
      "yaxes": [
        {
          "format": "short",
          "label": null,
          "logBase": 1,
          "max": null,
          "min": null,
          "show": true
        },
        {
          "format": "short",
          "label": null,
          "logBase": 1,
          "max": null,
          "min": null,
          "show": false
        }
      ],
      "yaxis": {
        "align": false,
        "alignLevel": null
      }
    },
    {
      "datasource": "SimpleJson",
      "gridPos": {
        "h": 9,
        "w": 5,
        "x": 0,
        "y": 10
      },
      "id": 11,
      "links": [],
      "options": {
        "displayMode": "gradient",
        "fieldOptions": {
          "calcs": [
            "sum"
          ],
          "defaults": {
            "max": 100,
            "min": 0,
            "unit": "percent"
          },
          "mappings": [],
          "override": {},
          "thresholds": [
            {
              "color": "green",
              "index": 0,
              "value": null
            },
            {
              "color": "#6ED0E0",
              "index": 1,
              "value": 4
            },
            {
              "color": "#EF843C",
              "index": 2,
              "value": 10
            },
            {
              "color": "#EAB839",
              "index": 3,
              "value": 20
            },
            {
              "color": "#E24D42",
              "index": 4,
              "value": 32
            },
            {
              "color": "red",
              "index": 5,
              "value": 50
            },
            {
              "color": "#1F78C1",
              "index": 6,
              "value": 60
            },
            {
              "color": "#BA43A9",
              "index": 7,
              "value": 70
            },
            {
              "color": "#705DA0",
              "index": 8,
              "value": 80
            },
            {
              "color": "#508642",
              "index": 9,
              "value": 90
            }
          ],
          "values": false
        },
        "orientation": "horizontal"
      },
      "targets": [
        {
          "rawQuery": true,
          "refId": "A",
          "target": "RPS_trial_stats_combined_bars:$trial_id,User",
          "type": "table"
        }
      ],
      "timeFrom": null,
      "timeShift": null,
      "title": "User Stats (Percent)",
      "type": "bargauge"
    },
    {
      "datasource": "SimpleJson",
      "gridPos": {
        "h": 9,
        "w": 5,
        "x": 6,
        "y": 10
      },
      "id": 12,
      "links": [],
      "options": {
        "displayMode": "gradient",
        "fieldOptions": {
          "calcs": [
            "sum"
          ],
          "defaults": {
            "max": 100,
            "min": 0,
            "unit": "percent"
          },
          "mappings": [],
          "override": {},
          "thresholds": [
            {
              "color": "green",
              "index": 0,
              "value": null
            },
            {
              "color": "#6ED0E0",
              "index": 1,
              "value": 4
            },
            {
              "color": "#EF843C",
              "index": 2,
              "value": 10
            },
            {
              "color": "#EAB839",
              "index": 3,
              "value": 20
            },
            {
              "color": "#E24D42",
              "index": 4,
              "value": 32
            },
            {
              "color": "red",
              "index": 5,
              "value": 50
            },
            {
              "color": "#1F78C1",
              "index": 6,
              "value": 60
            },
            {
              "color": "#BA43A9",
              "index": 7,
              "value": 70
            },
            {
              "color": "#705DA0",
              "index": 8,
              "value": 80
            },
            {
              "color": "#508642",
              "index": 9,
              "value": 90
            }
          ],
          "values": false
        },
        "orientation": "horizontal"
      },
      "targets": [
        {
          "rawQuery": true,
          "refId": "A",
          "target": "RPS_trial_stats_combined_bars:$trial_id,Agent",
          "type": "table"
        }
      ],
      "timeFrom": null,
      "timeShift": null,
      "title": "Agent Stats (Percent)",
      "type": "bargauge"
    },
    {
      "aliasColors": {},
      "bars": false,
      "dashLength": 10,
      "dashes": false,
      "datasource": "SimpleJson",
      "fill": 1,
      "gridPos": {
        "h": 7,
        "w": 24,
        "x": 0,
        "y": 19
      },
      "id": 10,
      "legend": {
        "avg": false,
        "current": false,
        "max": false,
        "min": false,
        "show": true,
        "total": false,
        "values": false
      },
      "lines": true,
      "linewidth": 1,
      "links": [],
      "nullPointMode": "null",
      "options": {},
      "percentage": false,
      "pointradius": 2,
      "points": false,
      "renderer": "flot",
      "seriesOverrides": [],
      "spaceLength": 10,
      "stack": false,
      "steppedLine": true,
      "targets": [
        {
          "rawQuery": true,
          "refId": "C",
          "target": "RPS_top_trial_stats_rps_graph:$trial_id",
          "type": "timeserie"
        }
      ],
      "thresholds": [],
      "timeFrom": null,
      "timeRegions": [],
      "timeShift": null,
      "title": "Trial User Rock/Paper/Scissors",
      "tooltip": {
        "shared": true,
        "sort": 0,
        "value_type": "individual"
      },
      "type": "graph",
      "xaxis": {
        "buckets": null,
        "mode": "time",
        "name": null,
        "show": true,
        "values": []
      },
      "yaxes": [
        {
          "format": "short",
          "label": null,
          "logBase": 1,
          "max": null,
          "min": null,
          "show": true
        },
        {
          "format": "short",
          "label": null,
          "logBase": 1,
          "max": null,
          "min": null,
          "show": false
        }
      ],
      "yaxis": {
        "align": false,
        "alignLevel": null
      }
    }
  ],
  "refresh": false,
  "schemaVersion": 18,
  "style": "dark",
  "tags": [],
  "templating": {
    "list": [
      {
        "allValue": null,
        "current": {
          "text": "4d3ddcc4-8c6d-4d8f-acb3-71e8f9e9b669",
          "value": "4d3ddcc4-8c6d-4d8f-acb3-71e8f9e9b669"
        },
        "hide": 2,
        "includeAll": false,
        "label": null,
        "multi": false,
        "name": "trial_id",
        "options": [
          {
            "selected": false,
            "text": "value",
            "value": "value"
          }
        ],
        "query": "value",
        "skipUrlSync": false,
        "type": "custom"
      }
    ]
  },
  "time": {
    "from": "2019-07-08T16:38:36.129Z",
    "to": "2019-07-08T16:39:10.027Z"
  },
  "timepicker": {
    "refresh_intervals": [
      "5s",
      "10s",
      "30s",
      "1m",
      "5m",
      "15m",
      "30m",
      "1h",
      "2h",
      "1d"
    ],
    "time_options": [
      "5m",
      "15m",
      "1h",
      "6h",
      "12h",
      "24h",
      "2d",
      "7d",
      "30d"
    ]
  },
  "timezone": "",
  "title": "RPS Trial Stats",
  "uid": "HOwTG5IWz",
  "version": 81
}